{
  "page": 1,
  "per_page": 15,
  "photos": [
    {
      "id": 6399697,
      "width": 2736,
      "height": 3648,
      "url": "https://www.pexels.com/photo/blue-and-black-abstract-painting-6399697/",
      "photographer": "Annie  Japaud",
      "photographer_url": "https://www.pexels.com/@vratsagirl",
      "photographer_id": 1159398,
      "avg_color": "#66819D",
      "src": {
        "original": "https://images.pexels.com/photos/6399697/pexels-photo-6399697.jpeg",
        "large2x": "https://images.pexels.com/photos/6399697/pexels-photo-6399697.jpeg?auto=compress&cs=tinysrgb&dpr=2&h=650&w=940",
        "large": "https://images.pexels.com/photos/6399697/pexels-photo-6399697.jpeg?auto=compress&cs=tinysrgb&h=650&w=940",
        "medium": "https://images.pexels.com/photos/6399697/pexels-photo-6399697.jpeg?auto=compress&cs=tinysrgb&h=350",
        "small": "https://images.pexels.com/photos/6399697/pexels-photo-6399697.jpeg?auto=compress&cs=tinysrgb&h=130",
        "portrait": "https://images.pexels.com/photos/6399697/pexels-photo-6399697.jpeg?auto=compress&cs=tinysrgb&fit=crop&h=1200&w=800",
        "landscape": "https://images.pexels.com/photos/6399697/pexels-photo-6399697.jpeg?auto=compress&cs=tinysrgb&fit=crop&h=627&w=1200",
        "tiny": "https://images.pexels.com/photos/6399697/pexels-photo-6399697.jpeg?auto=compress&cs=tinysrgb&dpr=1&fit=crop&h=200&w=280"
      },
      "liked": false
    },
    {
      "id": 3651825,
      "width": 2667,
      "height": 4000,
      "url": "https://www.pexels.com/photo/black-and-brown-street-lamp-3651825/",
      "photographer": "Luca Nardone",
      "photographer_url": "https://www.pexels.com/@lucanardone",
      "photographer_id": 49509,
      "avg_color": "#C9C3BE",
      "src": {
        "original": "https://images.pexels.com/photos/3651825/pexels-photo-3651825.jpeg",
        "large2x": "https://images.pexels.com/photos/3651825/pexels-photo-3651825.jpeg?auto=compress&cs=tinysrgb&dpr=2&h=650&w=940",
        "large": "https://images.pexels.com/photos/3651825/pexels-photo-3651825.jpeg?auto=compress&cs=tinysrgb&h=650&w=940",
        "medium": "https://images.pexels.com/photos/3651825/pexels-photo-3651825.jpeg?auto=compress&cs=tinysrgb&h=350",
        "small": "https://images.pexels.com/photos/3651825/pexels-photo-3651825.jpeg?auto=compress&cs=tinysrgb&h=130",
        "portrait": "https://images.pexels.com/photos/3651825/pexels-photo-3651825.jpeg?auto=compress&cs=tinysrgb&fit=crop&h=1200&w=800",
        "landscape": "https://images.pexels.com/photos/3651825/pexels-photo-3651825.jpeg?auto=compress&cs=tinysrgb&fit=crop&h=627&w=1200",
        "tiny": "https://images.pexels.com/photos/3651825/pexels-photo-3651825.jpeg?auto=compress&cs=tinysrgb&dpr=1&fit=crop&h=200&w=280"
      },
      "liked": false
    },
    {
      "id": 6189836,
      "width": 1908,
      "height": 2130,
      "url": "https://www.pexels.com/photo/white-and-black-flower-sketch-6189836/",
      "photographer": "Anna Maxelante",
      "photographer_url": "https://www.pexels.com/@anna-maxelante-1596256",
      "photographer_id": 1596256,
      "avg_color": "#DAD7CF",
      "src": {
        "original": "https://images.pexels.com/photos/6189836/pexels-photo-6189836.jpeg",
        "large2x": "https://images.pexels.com/photos/6189836/pexels-photo-6189836.jpeg?auto=compress&cs=tinysrgb&dpr=2&h=650&w=940",
        "large": "https://images.pexels.com/photos/6189836/pexels-photo-6189836.jpeg?auto=compress&cs=tinysrgb&h=650&w=940",
        "medium": "https://images.pexels.com/photos/6189836/pexels-photo-6189836.jpeg?auto=compress&cs=tinysrgb&h=350",
        "small": "https://images.pexels.com/photos/6189836/pexels-photo-6189836.jpeg?auto=compress&cs=tinysrgb&h=130",
        "portrait": "https://images.pexels.com/photos/6189836/pexels-photo-6189836.jpeg?auto=compress&cs=tinysrgb&fit=crop&h=1200&w=800",
        "landscape": "https://images.pexels.com/photos/6189836/pexels-photo-6189836.jpeg?auto=compress&cs=tinysrgb&fit=crop&h=627&w=1200",
        "tiny": "https://images.pexels.com/photos/6189836/pexels-photo-6189836.jpeg?auto=compress&cs=tinysrgb&dpr=1&fit=crop&h=200&w=280"
      },
      "liked": false
    },
    {
      "id": 6010606,
      "width": 2782,
      "height": 4200,
      "url": "https://www.pexels.com/photo/food-wood-art-dark-6010606/",
      "photographer": "Mike C. S.",
      "photographer_url": "https://www.pexels.com/@mike-c-s-3071670",
      "photographer_id": 3071670,
      "avg_color": "#573F37",
      "src": {
        "original": "https://images.pexels.com/photos/6010606/pexels-photo-6010606.jpeg",
        "large2x": "https://images.pexels.com/photos/6010606/pexels-photo-6010606.jpeg?auto=compress&cs=tinysrgb&dpr=2&h=650&w=940",
        "large": "https://images.pexels.com/photos/6010606/pexels-photo-6010606.jpeg?auto=compress&cs=tinysrgb&h=650&w=940",
        "medium": "https://images.pexels.com/photos/6010606/pexels-photo-6010606.jpeg?auto=compress&cs=tinysrgb&h=350",
        "small": "https://images.pexels.com/photos/6010606/pexels-photo-6010606.jpeg?auto=compress&cs=tinysrgb&h=130",
        "portrait": "https://images.pexels.com/photos/6010606/pexels-photo-6010606.jpeg?auto=compress&cs=tinysrgb&fit=crop&h=1200&w=800",
        "landscape": "https://images.pexels.com/photos/6010606/pexels-photo-6010606.jpeg?auto=compress&cs=tinysrgb&fit=crop&h=627&w=1200",
        "tiny": "https://images.pexels.com/photos/6010606/pexels-photo-6010606.jpeg?auto=compress&cs=tinysrgb&dpr=1&fit=crop&h=200&w=280"
      },
      "liked": false
    },
    {
      "id": 2973813,
      "width": 2560,
      "height": 2560,
      "url": "https://www.pexels.com/photo/fashion-love-woman-cute-2973813/",
      "photographer": "Nugroho  Wahyu",
      "photographer_url": "https://www.pexels.com/@whynugrohou",
      "photographer_id": 944901,
      "avg_color": "#C4B8B3",
      "src": {
        "original": "https://images.pexels.com/photos/2973813/pexels-photo-2973813.png",
        "large2x": "https://images.pexels.com/photos/2973813/pexels-photo-2973813.png?auto=compress&cs=tinysrgb&dpr=2&h=650&w=940",
        "large": "https://images.pexels.com/photos/2973813/pexels-photo-2973813.png?auto=compress&cs=tinysrgb&h=650&w=940",
        "medium": "https://images.pexels.com/photos/2973813/pexels-photo-2973813.png?auto=compress&cs=tinysrgb&h=350",
        "small": "https://images.pexels.com/photos/2973813/pexels-photo-2973813.png?auto=compress&cs=tinysrgb&h=130",
        "portrait": "https://images.pexels.com/photos/2973813/pexels-photo-2973813.png?auto=compress&cs=tinysrgb&fit=crop&h=1200&w=800",
        "landscape": "https://images.pexels.com/photos/2973813/pexels-photo-2973813.png?auto=compress&cs=tinysrgb&fit=crop&h=627&w=1200",
        "tiny": "https://images.pexels.com/photos/2973813/pexels-photo-2973813.png?auto=compress&cs=tinysrgb&dpr=1&fit=crop&h=200&w=280"
      },
      "liked": false
    },
    {
      "id": 6561413,
      "width": 3712,
      "height": 5568,
      "url": "https://www.pexels.com/photo/black-round-fruit-in-close-up-photography-6561413/",
      "photographer": "Eva Elijas",
      "photographer_url": "https://www.pexels.com/@eva-elijas",
      "photographer_id": 3540511,
      "avg_color": "#243A42",
      "src": {
        "original": "https://images.pexels.com/photos/6561413/pexels-photo-6561413.jpeg",
        "large2x": "https://images.pexels.com/photos/6561413/pexels-photo-6561413.jpeg?auto=compress&cs=tinysrgb&dpr=2&h=650&w=940",
        "large": "https://images.pexels.com/photos/6561413/pexels-photo-6561413.jpeg?auto=compress&cs=tinysrgb&h=650&w=940",
        "medium": "https://images.pexels.com/photos/6561413/pexels-photo-6561413.jpeg?auto=compress&cs=tinysrgb&h=350",
        "small": "https://images.pexels.com/photos/6561413/pexels-photo-6561413.jpeg?auto=compress&cs=tinysrgb&h=130",
        "portrait": "https://images.pexels.com/photos/6561413/pexels-photo-6561413.jpeg?auto=compress&cs=tinysrgb&fit=crop&h=1200&w=800",
        "landscape": "https://images.pexels.com/photos/6561413/pexels-photo-6561413.jpeg?auto=compress&cs=tinysrgb&fit=crop&h=627&w=1200",
        "tiny": "https://images.pexels.com/photos/6561413/pexels-photo-6561413.jpeg?auto=compress&cs=tinysrgb&dpr=1&fit=crop&h=200&w=280"
      },
      "liked": false
    },
    {
      "id": 1229087,
      "width": 5851,
      "height": 3901,
      "url": "https://www.pexels.com/photo/grayscale-photo-of-leaves-on-ground-1229087/",
      "photographer": "Alan Cabello",
      "photographer_url": "https://www.pexels.com/@alancabello",
      "photographer_id": 197496,
      "avg_color": "#1D1D1D",
      "src": {
        "original": "https://images.pexels.com/photos/1229087/pexels-photo-1229087.jpeg",
        "large2x": "https://images.pexels.com/photos/1229087/pexels-photo-1229087.jpeg?auto=compress&cs=tinysrgb&dpr=2&h=650&w=940",
        "large": "https://images.pexels.com/photos/1229087/pexels-photo-1229087.jpeg?auto=compress&cs=tinysrgb&h=650&w=940",
        "medium": "https://images.pexels.com/photos/1229087/pexels-photo-1229087.jpeg?auto=compress&cs=tinysrgb&h=350",
        "small": "https://images.pexels.com/photos/1229087/pexels-photo-1229087.jpeg?auto=compress&cs=tinysrgb&h=130",
        "portrait": "https://images.pexels.com/photos/1229087/pexels-photo-1229087.jpeg?auto=compress&cs=tinysrgb&fit=crop&h=1200&w=800",
        "landscape": "https://images.pexels.com/photos/1229087/pexels-photo-1229087.jpeg?auto=compress&cs=tinysrgb&fit=crop&h=627&w=1200",
        "tiny": "https://images.pexels.com/photos/1229087/pexels-photo-1229087.jpeg?auto=compress&cs=tinysrgb&dpr=1&fit=crop&h=200&w=280"
      },
      "liked": false
    },
    {
      "id": 6551949,
      "width": 2832,
      "height": 4240,
      "url": "https://www.pexels.com/photo/snow-wood-light-art-6551949/",
      "photographer": "Taryn Elliott",
      "photographer_url": "https://www.pexels.com/@taryn-elliott",
      "photographer_id": 1522664,
      "avg_color": "#898876",
      "src": {
        "original": "https://images.pexels.com/photos/6551949/pexels-photo-6551949.jpeg",
        "large2x": "https://images.pexels.com/photos/6551949/pexels-photo-6551949.jpeg?auto=compress&cs=tinysrgb&dpr=2&h=650&w=940",
        "large": "https://images.pexels.com/photos/6551949/pexels-photo-6551949.jpeg?auto=compress&cs=tinysrgb&h=650&w=940",
        "medium": "https://images.pexels.com/photos/6551949/pexels-photo-6551949.jpeg?auto=compress&cs=tinysrgb&h=350",
        "small": "https://images.pexels.com/photos/6551949/pexels-photo-6551949.jpeg?auto=compress&cs=tinysrgb&h=130",
        "portrait": "https://images.pexels.com/photos/6551949/pexels-photo-6551949.jpeg?auto=compress&cs=tinysrgb&fit=crop&h=1200&w=800",
        "landscape": "https://images.pexels.com/photos/6551949/pexels-photo-6551949.jpeg?auto=compress&cs=tinysrgb&fit=crop&h=627&w=1200",
        "tiny": "https://images.pexels.com/photos/6551949/pexels-photo-6551949.jpeg?auto=compress&cs=tinysrgb&dpr=1&fit=crop&h=200&w=280"
      },
      "liked": false
    },
    {
      "id": 1295384,
      "width": 5568,
      "height": 3712,
      "url": "https://www.pexels.com/photo/light-flight-landscape-art-1295384/",
      "photographer": "Brett Sayles",
      "photographer_url": "https://www.pexels.com/@brett-sayles",
      "photographer_id": 320794,
      "avg_color": "#7E74A7",
      "src": {
        "original": "https://images.pexels.com/photos/1295384/pexels-photo-1295384.jpeg",
        "large2x": "https://images.pexels.com/photos/1295384/pexels-photo-1295384.jpeg?auto=compress&cs=tinysrgb&dpr=2&h=650&w=940",
        "large": "https://images.pexels.com/photos/1295384/pexels-photo-1295384.jpeg?auto=compress&cs=tinysrgb&h=650&w=940",
        "medium": "https://images.pexels.com/photos/1295384/pexels-photo-1295384.jpeg?auto=compress&cs=tinysrgb&h=350",
        "small": "https://images.pexels.com/photos/1295384/pexels-photo-1295384.jpeg?auto=compress&cs=tinysrgb&h=130",
        "portrait": "https://images.pexels.com/photos/1295384/pexels-photo-1295384.jpeg?auto=compress&cs=tinysrgb&fit=crop&h=1200&w=800",
        "landscape": "https://images.pexels.com/photos/1295384/pexels-photo-1295384.jpeg?auto=compress&cs=tinysrgb&fit=crop&h=627&w=1200",
        "tiny": "https://images.pexels.com/photos/1295384/pexels-photo-1295384.jpeg?auto=compress&cs=tinysrgb&dpr=1&fit=crop&h=200&w=280"
      },
      "liked": false
    },
    {
      "id": 5288214,
      "width": 3426,
      "height": 4282,
      "url": "https://www.pexels.com/photo/white-and-black-crescent-moon-5288214/",
      "photographer": "MOHAMED ABDELSADIG",
      "photographer_url": "https://www.pexels.com/@moab94",
      "photographer_id": 786714,
      "avg_color": "#111",
      "src": {
        "original": "https://images.pexels.com/photos/5288214/pexels-photo-5288214.jpeg",
        "large2x": "https://images.pexels.com/photos/5288214/pexels-photo-5288214.jpeg?auto=compress&cs=tinysrgb&dpr=2&h=650&w=940",
        "large": "https://images.pexels.com/photos/5288214/pexels-photo-5288214.jpeg?auto=compress&cs=tinysrgb&h=650&w=940",
        "medium": "https://images.pexels.com/photos/5288214/pexels-photo-5288214.jpeg?auto=compress&cs=tinysrgb&h=350",
        "small": "https://images.pexels.com/photos/5288214/pexels-photo-5288214.jpeg?auto=compress&cs=tinysrgb&h=130",
        "portrait": "https://images.pexels.com/photos/5288214/pexels-photo-5288214.jpeg?auto=compress&cs=tinysrgb&fit=crop&h=1200&w=800",
        "landscape": "https://images.pexels.com/photos/5288214/pexels-photo-5288214.jpeg?auto=compress&cs=tinysrgb&fit=crop&h=627&w=1200",
        "tiny": "https://images.pexels.com/photos/5288214/pexels-photo-5288214.jpeg?auto=compress&cs=tinysrgb&dpr=1&fit=crop&h=200&w=280"
      },
      "liked": false
    },
    {
      "id": 3047329,
      "width": 3648,
      "height": 5472,
      "url": "https://www.pexels.com/photo/green-and-brown-trees-near-body-of-water-3047329/",
      "photographer": "Jonathan Borba",
      "photographer_url": "https://www.pexels.com/@jonathanborba",
      "photographer_id": 1491594,
      "avg_color": "#877254",
      "src": {
        "original": "https://images.pexels.com/photos/3047329/pexels-photo-3047329.jpeg",
        "large2x": "https://images.pexels.com/photos/3047329/pexels-photo-3047329.jpeg?auto=compress&cs=tinysrgb&dpr=2&h=650&w=940",
        "large": "https://images.pexels.com/photos/3047329/pexels-photo-3047329.jpeg?auto=compress&cs=tinysrgb&h=650&w=940",
        "medium": "https://images.pexels.com/photos/3047329/pexels-photo-3047329.jpeg?auto=compress&cs=tinysrgb&h=350",
        "small": "https://images.pexels.com/photos/3047329/pexels-photo-3047329.jpeg?auto=compress&cs=tinysrgb&h=130",
        "portrait": "https://images.pexels.com/photos/3047329/pexels-photo-3047329.jpeg?auto=compress&cs=tinysrgb&fit=crop&h=1200&w=800",
        "landscape": "https://images.pexels.com/photos/3047329/pexels-photo-3047329.jpeg?auto=compress&cs=tinysrgb&fit=crop&h=627&w=1200",
        "tiny": "https://images.pexels.com/photos/3047329/pexels-photo-3047329.jpeg?auto=compress&cs=tinysrgb&dpr=1&fit=crop&h=200&w=280"
      },
      "liked": false
    },
    {
      "id": 6502496,
      "width": 4000,
      "height": 5000,
      "url": "https://www.pexels.com/photo/woman-with-blue-eyes-and-brown-eyeshadow-6502496/",
      "photographer": "fotografierende",
      "photographer_url": "https://www.pexels.com/@fotografierende",
      "photographer_id": 116950,
      "avg_color": "#93776C",
      "src": {
        "original": "https://images.pexels.com/photos/6502496/pexels-photo-6502496.jpeg",
        "large2x": "https://images.pexels.com/photos/6502496/pexels-photo-6502496.jpeg?auto=compress&cs=tinysrgb&dpr=2&h=650&w=940",
        "large": "https://images.pexels.com/photos/6502496/pexels-photo-6502496.jpeg?auto=compress&cs=tinysrgb&h=650&w=940",
        "medium": "https://images.pexels.com/photos/6502496/pexels-photo-6502496.jpeg?auto=compress&cs=tinysrgb&h=350",
        "small": "https://images.pexels.com/photos/6502496/pexels-photo-6502496.jpeg?auto=compress&cs=tinysrgb&h=130",
        "portrait": "https://images.pexels.com/photos/6502496/pexels-photo-6502496.jpeg?auto=compress&cs=tinysrgb&fit=crop&h=1200&w=800",
        "landscape": "https://images.pexels.com/photos/6502496/pexels-photo-6502496.jpeg?auto=compress&cs=tinysrgb&fit=crop&h=627&w=1200",
        "tiny": "https://images.pexels.com/photos/6502496/pexels-photo-6502496.jpeg?auto=compress&cs=tinysrgb&dpr=1&fit=crop&h=200&w=280"
      },
      "liked": false
    },
    {
      "id": 1825186,
      "width": 5184,
      "height": 3456,
      "url": "https://www.pexels.com/photo/landscape-people-apple-vehicle-1825186/",
      "photographer": "Elizaveta Kozorezova",
      "photographer_url": "https://www.pexels.com/@lizakozorezova",
      "photographer_id": 908629,
      "avg_color": "#2D3334",
      "src": {
        "original": "https://images.pexels.com/photos/1825186/pexels-photo-1825186.jpeg",
        "large2x": "https://images.pexels.com/photos/1825186/pexels-photo-1825186.jpeg?auto=compress&cs=tinysrgb&dpr=2&h=650&w=940",
        "large": "https://images.pexels.com/photos/1825186/pexels-photo-1825186.jpeg?auto=compress&cs=tinysrgb&h=650&w=940",
        "medium": "https://images.pexels.com/photos/1825186/pexels-photo-1825186.jpeg?auto=compress&cs=tinysrgb&h=350",
        "small": "https://images.pexels.com/photos/1825186/pexels-photo-1825186.jpeg?auto=compress&cs=tinysrgb&h=130",
        "portrait": "https://images.pexels.com/photos/1825186/pexels-photo-1825186.jpeg?auto=compress&cs=tinysrgb&fit=crop&h=1200&w=800",
        "landscape": "https://images.pexels.com/photos/1825186/pexels-photo-1825186.jpeg?auto=compress&cs=tinysrgb&fit=crop&h=627&w=1200",
        "tiny": "https://images.pexels.com/photos/1825186/pexels-photo-1825186.jpeg?auto=compress&cs=tinysrgb&dpr=1&fit=crop&h=200&w=280"
      },
      "liked": false
    },
    {
      "id": 6495519,
      "width": 4000,
      "height": 6000,
      "url": "https://www.pexels.com/photo/woman-with-white-flower-on-her-ear-6495519/",
      "photographer": "Lisa Fotios",
      "photographer_url": "https://www.pexels.com/@fotios-photos",
      "photographer_id": 26735,
      "avg_color": "#5B3C3D",
      "src": {
        "original": "https://images.pexels.com/photos/6495519/pexels-photo-6495519.jpeg",
        "large2x": "https://images.pexels.com/photos/6495519/pexels-photo-6495519.jpeg?auto=compress&cs=tinysrgb&dpr=2&h=650&w=940",
        "large": "https://images.pexels.com/photos/6495519/pexels-photo-6495519.jpeg?auto=compress&cs=tinysrgb&h=650&w=940",
        "medium": "https://images.pexels.com/photos/6495519/pexels-photo-6495519.jpeg?auto=compress&cs=tinysrgb&h=350",
        "small": "https://images.pexels.com/photos/6495519/pexels-photo-6495519.jpeg?auto=compress&cs=tinysrgb&h=130",
        "portrait": "https://images.pexels.com/photos/6495519/pexels-photo-6495519.jpeg?auto=compress&cs=tinysrgb&fit=crop&h=1200&w=800",
        "landscape": "https://images.pexels.com/photos/6495519/pexels-photo-6495519.jpeg?auto=compress&cs=tinysrgb&fit=crop&h=627&w=1200",
        "tiny": "https://images.pexels.com/photos/6495519/pexels-photo-6495519.jpeg?auto=compress&cs=tinysrgb&dpr=1&fit=crop&h=200&w=280"
      },
      "liked": false
    },
    {
      "id": 4713440,
      "width": 3875,
      "height": 5720,
      "url": "https://www.pexels.com/photo/woman-in-white-tank-top-wearing-sunglasses-4713440/",
      "photographer": "Adnan",
      "photographer_url": "https://www.pexels.com/@itsnanananda",
      "photographer_id": 165445,
      "avg_color": "#242424",
      "src": {
        "original": "https://images.pexels.com/photos/4713440/pexels-photo-4713440.jpeg",
        "large2x": "https://images.pexels.com/photos/4713440/pexels-photo-4713440.jpeg?auto=compress&cs=tinysrgb&dpr=2&h=650&w=940",
        "large": "https://images.pexels.com/photos/4713440/pexels-photo-4713440.jpeg?auto=compress&cs=tinysrgb&h=650&w=940",
        "medium": "https://images.pexels.com/photos/4713440/pexels-photo-4713440.jpeg?auto=compress&cs=tinysrgb&h=350",
        "small": "https://images.pexels.com/photos/4713440/pexels-photo-4713440.jpeg?auto=compress&cs=tinysrgb&h=130",
        "portrait": "https://images.pexels.com/photos/4713440/pexels-photo-4713440.jpeg?auto=compress&cs=tinysrgb&fit=crop&h=1200&w=800",
        "landscape": "https://images.pexels.com/photos/4713440/pexels-photo-4713440.jpeg?auto=compress&cs=tinysrgb&fit=crop&h=627&w=1200",
        "tiny": "https://images.pexels.com/photos/4713440/pexels-photo-4713440.jpeg?auto=compress&cs=tinysrgb&dpr=1&fit=crop&h=200&w=280"
      },
      "liked": false
    }
  ],
  "total_results": 8000,
  "next_page": "https://api.pexels.com/v1/curated/?page=2&per_page=15"
}